1339.09455	1325.31677	1353.18483
1367.88101	1354.10844	1381.52163
1396.058095	1382.7265	1409.3758
1424.03726	1410.90705	1436.85844
1450.88101	1437.98344	1464.29594
1477.570245	1465.21261	1490.05288
1503.8758	1491.63275	1516.09455
1529.669205	1517.34802	1542.00775
1556.13969	1543.22302	1568.48344
1582.280315	1569.4383	1595.6883
1610.24212	1596.77858	1623.90011
1639.521635	1624.95566	1652.90011
1668.16226	1653.92094	1682.36538
1696.87059	1683.35497	1710.21261
1724.403575	1711.36538	1737.41747
1751.011215	1738.65358	1763.32719
1777.016425	1764.68483	1789.70219
1802.94872	1790.65705	1815.039
1828.48344	1816.08413	1841.15705
1855.631005	1842.50427	1868.83066
1884.462605	1870.43483	1897.789
1913.04247	1899.30636	1926.5008
1941.35844	1928.10497	1954.88275
1968.8133	1955.79594	1982.289
1996.280315	1983.63275	2009.3133
2022.65705	2010.26816	2035.14316
2048.6449	2036.27858	2060.65011
2074.5633	2061.8515	2087.10497
2101.85497	2088.24038	2114.44177
2129.67788	2115.88622	2143.22997
2158.16226	2144.51469	2172.03552
2186.446985	2173.07372	2200.24038
2214.65358	2201.73344	2227.58066
2241.450455	2228.7508	2254.07372
2267.87059	2254.99038	2279.98691
2293.32719	2280.90358	2305.99733
2319.52858	2307.24038	2332.58761
2346.820245	2333.85497	2360.55983
2375.363645	2361.77163	2389.7265
2404.868855	2390.65358	2418.86191
2433.163995	2419.99038	2446.58761
2460.77684	2447.69177	2473.16747
2486.651475	2474.1619	2498.88828
2512.46049	2500.18272	2524.43965
2538.557705	2525.50215	2550.62436
2565.314635	2551.56047	2578.70074
2593.41532	2579.79657	2606.93962
2622.33336	2607.9285	2635.98544
2650.92779	2637.46738	2664.31459
2678.852775	2665.26598	2691.50902
2705.1861	2692.94236	2717.53401
2730.871505	2718.62984	2743.07567
2756.45135	2743.99094	2768.97843
2782.931195	2769.8937	2796.12841
2810.411735	2797.09507	2824.26312
2838.618675	2825.25202	2853.13811
2867.3513	2853.34923	2882.11449
2896.160315	2882.32421	2910.25892
2923.451975	2910.04781	2936.89779
2949.87209	2936.68669	2962.79362
2975.30264	2962.5825	2988.43528
3001.028325	2988.22555	3014.36304
3027.49706	3014.15193	3041.10886
3055.184205	3040.89914	3068.73384
3083.58036	3068.03107	3097.66856
3112.08036	3096.62827	3126.63659
3140.354635	3126.42688	3154.60602
3168.375455	3154.39491	3182.34906
3195.097665	3182.13795	3208.34907
3221.229615	3208.13794	3234.0296
3247.111535	3233.8185	3260.17821
3273.104595	3259.96847	3285.79347
3299.04555	3285.58237	3312.85874
3325.951795	3312.64902	3339.77956
3353.660105	3339.56845	3367.48232