

Results from query to  NASA/IPAC Extragalactic Database (NED),
which is funded by the National Aeronautics and Space Administration.
and operated by the California Institute of Technology.


queryDateTime:2023-11-24T05:38:05PST



Main Information Table for All Sky, chosen by params



Equinox:J2000.0



CoordSystem:Equatorial

No.|Object Name|RA|DEC|Type|Velocity|Redshift|Redshift Flag|Magnitude and Filter|Separation|References|Notes|Photometry Points|Positions|Redshift Points|Diameter Points|Associations
1|NGC 0424| 17.86511 | -38.08347 |G|  3527| 0.011764 |S1L |13.90|  0.000|281|10|182|61|44|22|0
2|[HB89] 0109+224| 18.02427 |  22.74411 |QSO|107925| 0.360000 |MUN |15.66|  0.000|290|8|112|46|18|0|0
3|3C 066A| 35.66505 |  43.03550 |QSO|110923| 0.370000 |SUN |15.2V|  0.000|567|20|96|77|36|0|1
4|WISEA J022839.10-101110.5| 37.16330 | -10.18639 |QSO|676332| 2.256000 |SMU |15.1R|  0.000|47|1|27|10|4|0|0
5|NGC 0985| 38.65737 |  -8.78762 |G| 12934| 0.043143 |SUN |13.8 |  0.000|353|16|142|52|43|8|1
6|[HB89] 0300+470| 45.89684 |  47.27119 |QSO|142401| 0.475000 |SUN |17.21|  0.000|252|4|79|39|6|0|1
7|NGC 1275| 49.95067 |  41.51170 |G|  5264| 0.017559 |SUN |11.8B|  0.000|2087|47|657|140|82|18|0
8|[HB89] 0422+004| 66.19518 |   0.60176 |QSO| 92936| 0.310000 |SUN |16.98|  0.000|346|14|132|43|10|0|0
9|[HB89] 0716+714|110.47270 |  71.34343 |QSO| 92936| 0.310000 |SUN |15.5V|  0.000|794|15|201|99|53|0|0
10|[HB89] 0735+178|114.53081 |  17.70528 |QSO|127112| 0.424000 |SUN |14.85|  0.000|805|23|314|66|33|4|2
11|[HB89] 0754+100|119.27768 |   9.94301 |QSO| 79745| 0.266000 |SUN |14.5 |  0.000|420|15|144|56|27|4|0
12|IC 0486|120.08743 |  26.61353 |G|  8016| 0.026738 |SLS |14.1g|  0.000|168|1|130|62|51|15|0
13|WISEA J080949.18+521858.2|122.45494 |  52.31618 |QSO| 41371| 0.138000 |SUN |15.3 |  0.000|233|5|89|58|34|9|0
14|[HB89] 0829+046|127.95365 |   4.49419 |QSO| 52121| 0.173856 |SLS |15.8g|  0.000|450|16|152|61|39|8|2
15|ARP 007|132.58433 | -16.57947 |G|  5582| 0.018620 |S1L |14.5 |  0.000|39|3|48|13|9|6|0
16|OJ +287|133.70365 |  20.10851 |QSO| 91617| 0.305600 |UUN |14.0V|  0.000|1318|28|389|99|65|6|0
17|FBQS J091552.3+293324|138.96834 |  29.55668 |QSO|371622| 1.239596 |SLS |15.83|  0.000|228|2|90|63|13|8|0
18|2MASX J09220975-0032218|140.54059 |  -0.53957 |G| 16835| 0.056157 |SLS |16.5g|  0.000|36|0|61|14|12|10|0
19|[HB89] 0954+658|149.69685 |  65.56523 |QSO|110743| 0.369400 |UUN |16.7 |  0.000|490|15|106|63|37|0|1
20|2MASX J10433292+0101086|160.88702 |   1.01912 |G| 21552| 0.071891 |SLS |16.3g|  0.000|39|0|81|17|14|11|0
21|NGC 3431|162.81267 | -17.00803 |G|  5253| 0.017522 |SUN |14.53|  0.000|58|1|73|28|20|5|0
22|MRK 0421|166.11381 |  38.20883 |G|  9000| 0.030021 |SUN |12.8V|  0.000|1449|17|404|128|88|10|0
23|NGC 3894|177.20983 |  59.41566 |G|  3230| 0.010773 |SLS |12.63|  0.000|249|8|129|52|30|13|1
24|IC 0756|180.74088 |   4.84585 |G|  6275| 0.020931 |SUN |14.2g|  0.000|86|0|106|30|25|15|0
25|FBQS J1217+3007|184.46701 |  30.11684 |QSO| 38673| 0.129000 |SUN |15.5 |  0.000|411|7|100|68|38|5|0
26|W Com|185.38204 |  28.23292 |QSO| 30579| 0.102000 |SUN |16.5 |  0.000|635|8|139|90|53|4|1
27|3C 273|187.27792 |   2.05239 |QSO| 47469| 0.158339 |SUN |12.8V|  0.000|2944|45|719|161|115|11|0
28|IC 3639|190.22022 | -36.75586 |G|  3275| 0.010924 |SUN |13.00|  0.000|242|16|188|41|25|21|0
29|3C 279|194.04653 |  -5.78931 |QSO|160749| 0.536200 |SUN |15.2R|  0.000|1505|29|352|119|77|0|0
30|NGC 5135|201.43358 | -29.83367 |G|  4105| 0.013693 |S1L |12.88|  0.000|456|18|209|67|42|19|2
31|NGC 5506|213.31205 |  -3.20758 |G|  1824| 0.006084 |S1L |12.8g|  0.000|958|31|417|114|95|17|0
32|[HB89] 1418+546|214.94416 |  54.38744 |QSO| 45712| 0.152479 |SLS |15.9g|  0.000|486|15|216|71|37|9|4
33|FBQS J142700.4+234800|216.75163 |  23.80001 |QSO| 47967| 0.160000 |UUN?|14.6V|  0.000|287|4|109|71|18|4|1
34|FBQS J150101.8+223806|225.25766 |  22.63510 |QSO| 70451| 0.235000 |SUN |16.79|  0.000|134|4|54|37|19|4|1
35|MRK 0501|253.46757 |  39.76017 |QSO|  9888| 0.032983 |SLS |14.15|  0.000|1256|22|353|132|86|11|0
36|IC 1255|260.77246 |  12.69544 |G|  9138| 0.030481 |S1L |14.2 |  0.000|39|0|45|19|12|5|0
37|NGC 6328|260.92096 | -65.01017 |G|  4325| 0.014428 |S1L |13.16|  0.000|172|8|119|41|24|15|0
38|WISEA J172504.34+115215.5|261.26809 |  11.87096 |G|  5396| 0.018000 |SUN |15.77|  0.000|178|6|69|46|9|0|2
39|I Zw 187|262.07760 |  50.21957 |G| 16610| 0.055405 |SUN |15.15|  0.000|345|8|102|52|29|2|3
40|UGC 11130|271.71117 |  69.82447 |G| 14847| 0.049523 |SLS |14.2V|  0.000|769|21|278|78|46|8|0
41|ESO 281- G 038|284.08738 | -43.14686 |G|  4956| 0.016531 |S1L |12.39|  0.000|37|2|37|14|10|5|0
42|ESO 338-IG 004|291.99237 | -41.57561 |G|  2834| 0.009453 |S1L |13.3 |  0.000|178|10|103|27|17|15|0
43|[HB89] 2032+107|308.84306 |  10.93522 |QSO|180175| 0.601000 |SUN |18.6 |  0.000|158|1|48|22|10|0|0
44|[HB89] 2155-304|329.71694 | -30.22559 |QSO| 34986| 0.116700 |SUN |14.  |  0.000|915|15|148|101|55|0|0
45|BL Lac|330.68038 |  42.27777 |QSO| 20026| 0.066800 |UUN |14.7V|  0.000|1341|25|340|97|57|3|0
46|NGC 7213|332.31796 | -47.16661 |G|  1750| 0.005839 |S1L |11.01|  0.000|567|13|263|62|50|17|0
47|NGC 7378|341.94875 | -11.81664 |G|  2578| 0.008599 |SLS |13.64|  0.000|68|0|41|19|15|6|0
48|3C 454.3|343.49062 |  16.14821 |QSO|257522| 0.859000 |SUN |16.1 |  0.000|1329|22|366|147|101|4|0
49|NGC 7582|349.59792 | -42.37056 |G|  1575| 0.005254 |SUN |11.37|  0.000|779|27|351|75|61|19|1
50|WISEA J234704.83+514217.9|356.77015 |  51.70497 |G| 13191| 0.044000 |SMU |12.89|  0.000|267|4|122|55|33|6|0
