Rmag AGN 177 to 200
NGC 2179 
NGC 2945
NGC 4825
NGC 7702
IRAS 05563-3820 
IRAS 15091-2107
Z 22-21
ESO 428-14 
ESO 534-9
NGC 3302
NGC 749
NGC 7096
NGC 2106 
NGC 897 
ESO 380-19
NGC 4786
NGC 686
NGC 4169
NGC 5220
4C 73.08 
2MASX J08561784-0138073 
IRAS 10295-1831
NGC 5843
NGC 1667 
IC 2977
