NGC 2808
NGC 6541
NGC 362
M92
M62
NGC 6388
M28
NGC 4833
NGC 6723
NGC 1851
NGC 6441
M30
NGC 4372
M80
NGC 5286
NGC 5986
M14
M53
M69
M9
NGC 6362
M79
NGC 6544
M68
NGC 6624
M70
M107
NGC 6352
NGC 5927
NGC 6553
NGC 288
NGC 6712
Minni 22
M71
NGC 6293
NGC 6304
NGC 6356
NGC 6522
M56
NGC 6584
NGC 1261
NGC 6316
M75
NGC 5897
NGC 6496
NGC 6569
NGC 6652
NGC 6934
NGC 6284
NGC 6760
NGC 6139
NGC 6144
NGC 6638
NGC 5466
NGC 5824
NGC 6642
NGC 6355
NGC 6101
NGC 6366
NGC 6440
NGC 6558
M72
NGC 6717
NGC 2298
NGC 6540
NGC 6539
NGC 6287
NGC 6229
NGC 6401
NGC 5053
NGC 5634
NGC 6528
NGC 5946
NGC 6342
IC 4499
Palomar 11
Cl Djorg 2
NGC 6235
NGC 6453
NGC 5694
NGC 6517
NGC 4147
NGC 6325
IC 1276
NGC 2419
NGC 6535
NGC 7006
Ruprecht 106
ESO 456-78
NGC 6426
Palomar 8
NGC 7492
NGC 6256
NGC 6380
E 3
Palomar 6
Haute-Provence 1
Palomar 5
Gran 4
Terzan 3
ESO 280-SC06
ESO 452-SC 11