NGC 4594
NPM1G+41.0135
NGC 3621
NPM1G-16.0168
NGC 4395
UGC 7377
NGC 676
M 31
NGC 2985
NGC 3718
NGC 1068
NGC 4736
NGC 4278
NGC 2824
NGC 5353
NGC 2655
NGC 6384
NGC 4552
NGC 4036
NGC 2442
NGC 3486
HXMM J11053+3814
NGC 2681
NGC 4696
NGC 4517
3C 278
NGC 3254
NGC 1042
NGC 3423
NGC 3941
NGC 3031
NGC 4258
NGC 3982
NGC 4579
NGC 404
NGC 1058
NGC 3227
NGC 2787
IC 4729
NGC 7410
NGC 5078
NGC 4636
IC 1459
NGC 4151
NGC 660
NGC 2639
NGC 6812
NGC 428
NGC 2768
NGC 7217
NGC 5371
NGC 2217
NGC 1387
NGC 3627
NGC 2325
NGC 4203
PKS 0958-314
WPVS 97
NGC 5033
NGC 3738
NGC 4772
NGC 2907
NGC 1161
NGC 5087
NGC 4143
NGC 7213
NGC 4785
Circinus
NGC 3998
NGC 4750
NGC 5678
IC 3370
RX J02040+4005
NGC 4168
NGC 4826
NGC 3310
NGC 3962
NGC 4472
NGC 3079
4U 0241+61
ESO 137-G34
NGC 5879
NGC 5377
NGC 5084
NGC 4941
NGC 1672
NGC 4936
NGC 2855
NGC 4138
NGC 4698
NGC 3185
NGC 2974
WPVS 95
NGC 3976
NGC 1052
NGC 4374
NGC 4569
NGC 6915
NGC 5806
NGC 3516
NGC 2841
NGC 3169
NGC 4565
NGC 4725
NGC 835
NGC 5953
ESO 339-G11
NGC 5395
NGC 1275
NGC 5905
NGC 4903
ESO 234-G50
NGC 3735
NGC 315
NGC 4105
NGC 6500
NGC 1808
NGC 5631
NGC 7552
ESO 506-G04
NGC 4303
NVSS J11362-3745
NGC 4102
NGC 5861
NGC 1961
ESO 362-G08
NGC 3147
NGC 777
NGC 4383
NGC 5347
NGC 2685
ESO 116-G18
NGC 1241
NGC 613
SDSS J08375+2842
NGC 4639
NGC 5128
NGC 788
NGC 3607
MCG -05.51.008
NGC 1167
NGC 6166
NGC 1097
NGC 7377
UGC 11630
NGC 5292
NGC 4206
1ES 1959+650
NGC 4438
PKS 2005-489
NGC 1386
3C 273.0
NGC 5077
Zw 338.014
MARK 171
NGC 1667
NGC 4486
NGC 4261
NGC 3573
NGC 3994
NGC 3884
CGRaBS J2204+3632
UGC 3478
MARK 421
NPM1G+78.0053
NGC 4625
NGC 4411B
NGC 4051
NGC 3504
NGC 1365
NGC 5140
NVSS J11275-3757
IC 4296
NGC 4477
NGC 2258
NGC 6000
IRAS 11215-2806
NGC 5232
NGC 3177
NGC 7378
NGC 3497
AM 0426-625S
IC 1495
NGC 833
MCG -04.30.029
NGC 2578
NGC 7469
NGC 1358
NGC 266
NGC 6300
PKS 2155-304
NGC 4169
ESO 326-G12
NGC 5211
NGC 3798
NGC 5124
NGC 2329
MCG -05.23.008
NVSS J16448-1302
NGC 4404
MARK 341
NGC 7314
ESO 377-G24
PKS 1806-458
IC 1657
MARK 509
NGC 5273
NGC 1125
ESO 328-G16
CGRaBS J1459-1810
NGC 4593
NPM1G-09.0688
NGC 5253
NGC 4412
NGC 3353
NGC 1566
NGC 4501
NGC 4450
CG 825
NGC 3065
NGC 6434
RXS J12161+0929
NGC 2945
NGC 3928
F 49
NGC 612
LB 1727
NGC 5899
NGC 4897
NPM1G-22.0017
NGC 4192
NGC 3032
NGC 7743
RXS J00031-1805
NGC 1713
MARK 201
3C 465.0
NVSS J19015-3911
NGC 1217
PGC 64989
IRAS 11353-4854
ESO 420-G13
NGC 5990
NGC 7135
NGC 5244
UGC 3995
IC 2560
NGC 5793
NGC 3226
MARK 3
RXS J11032-0654
NGC 5135
NGC 5866
MARK 759
NGC 4694
NGC 4418
NGC 6240
ESO 362-G18
FIRST J21398-0804
ESO 578-G11
NGC 5728
NGC 513
NGC 841
NGC 6137
MCG -07.05.010
NGC 3390
ESO 323-G77
MARK 266SW
NGC 5260
Zw 308.017
NGC 3783
NGC 289
NGC 926
NGC 6221
NGC 2782
NGC 4495
NGC 7591
NGC 5194
NGC 4966
NGC 4378
NGC 4180
NGC 7679
MCG -02.25.025
NGC 1050
NGC 4619
MCG -04.30.010
IC 3639
ESO 386-G034
MARK 565
NVSS J10077-3511
NGC 5318
NGC 3035
IGR J03334+3718
Zw 468.002
NGC 2110
NGC 5357
MARK 938
ESO 428-G14
NGC 7319
ESO 005-G04
NGC 6860
NGC 4507
MARK 620
NGC 4550
NGC 973
IRAS 09149-6206
NGC 3081
NGC 7592W
MARK 766
NGC 4548
NGC 7582
RX J08087+0018
NGC 454E
IRAS 04505-2958
ESO 383-G18
MCG -06.28.025
MARK 686
NGC 5643
ESO 235-IG26
IRAS 05262+4432
PKS 2048-57
ESO 139-G12
F 280
IC 2202
PKS 0352-686
NGC 4235
ESO 508-G05
IRAS 18130+5703
NGC 3831
NGC 237
NVSS J08018-0520
NGC 7620
NGC 4704
NGC 7172
MCG -06.30.015
ESO 541-G001
SDSS J15528+4038
ESO 138-G01
ESO 141-G55
IC 4329A
ESO 565-G19
NGC 5005
UGC 12646
SDSS J13328+4152
ESO 548-G81
UGC 3927
NGC 5995
ESO 434-G40
ESO 045-011
ESO 353-G09
UGC 2024
NVSS J09079-1317
ESO 540-G01
NVSS J06472-3801
NGC 599
ESO 18-G09
NGC 3822
MARK 1210
NVSS J04211-0645
NGC 5674
MCG -01.24.012
NGC 5515
NGC 5514
XBS J01269+1912
NPM1G+50.0375
ESO 443-G17
NGC 5757
NGC 5548
MARK 744
NGC 7590
MARK 501
NGC 2992
MARK 817
PKS 2153-69
MCG -04.30.034
RX J18040+0042
IRAS 13224-3809
NGC 6936
NGC 4939
87GB 01540+4105
NGC 6786
NVSS J09257-2812
NVSS J08230-0903
MARK 937
MARK 590
IC 4200
NGC 4990
NGC 7749
KUG 1315+340B
F 9
NGC 2911
ESO 535-G001
MARK 231
AKN 79
MARK 335
HE 1029-1401
NGC 6926
IC 5135
IC 4553
NGC 6217
NGC 7479
MCG -03.34.064
NGC 6521
PHL 1811
MCG +11.19.005
NGC 5635
ESO 323-G32
PKS 2354-35
MARK 1157
NGC 7496
TEX 0826+180
NGC 3171
NGC 7832
ESO 373-G13
NGC 1218
PKS 1306-241
NGC 4388
IC 4197
MCG -01.27.031
AKN 120
NGC 1266
NGC 4853
NGC 3858
NGC 3393
NGC 3312
MARK 993
MARK 1066
NGC 5427
NVSS J20021-3342
NVSS J14334-3637
NGC 253
TEX 1601+160
NGC 3862
NGC 1614
