Ascc 8
Ascc 9
Basel 12
Basel 13
Berkeley 43
Berkeley 44
Berkeley 49
Berkeley 50
Berkeley 66
Berkeley 82
Berkeley 83
Berkeley 84
Berkeley 85
Collinder 261
Collinder 307
Collinder 62
Czernik 13
Dbsb 159
Dolidze 3
Eso 130 13
Eso 456 29
Fsr 0154
Fsr 0165
Fsr 0167
Fsr 0188
Fsr 0192
Fsr 0253
Fsr 0274
Fsr 0314
Fsr 0333
Fsr 0336
Fsr 0900
Fsr 0951
Fsr 1406
Fsr 1434
Fsr 1513
Fsr 1645
Fsr 1651
Fsr 1668
Fsr 1682
Fsr 1712
Fsr 1714
Fsr 1769
Hogg 18
Hogg 19
Ic 1311
Ic 166
Ic 2488
Ic 2581
Ic 2714
Ic 4996
King 10
King 1
King 25
Kronberger 13
Kronberger 31
Loden 1010
Loden 1152
Loden 1225
Loden 1378
Loden 2045
Loden 2115
Loden 2313
Loden 481
Loden 991
Lynga 12
Lynga 2
Lynga 3
Lynga 4
Lynga 5
Ngc 129
Ngc 1513
Ngc 2659
Ngc 2671
Ngc 2910
Ngc 4103
Ngc 5281
Ngc 5299
Ngc 5381
Ngc 5749
Ngc 5800
Ngc 6134
Ngc 6167
Ngc 6216
Ngc 6222
Ngc 6249
Ngc 6256
Ngc 6259
Ngc 6266
Ngc 6304
Ngc 6380
Ngc 6388
Ngc 6569
Ngc 663
Ngc 6749
Ngc 6802
Ngc 6834
Ngc 6883
Ngc 6885
Ngc 6910
Ngc 7031
Ngc 7086
Ngc 7175
Patchick 75
Pismis 3
Pismis 6
Ruprecht 102
Ruprecht 105
Ruprecht 172
Ruprecht 173
Ruprecht 83
Ruprecht 94
Sai 132
Saurer 6
Terzan 2
Teutsch 84
Turner 7
Vdbergh hagen 155
Vdbergh hagen 67
Vdbergh hagen 87
Vdbergh hagen 92
