NGC 6752
M5
M10
M13
NGC 3201
M55
M3
M15
M19
M2
M12
Minni 48
Balbinot 1
[FSR2007] 1716
[FSR2007] 1767
[FSR2007] 1775
[FSR2007] 1776
[FSR2007] 19
[FSR2007] 25
[FSR2007] 9
ESO 393-12
ESO 456-09
ESO 92-18
Cl Ferrero 54
[KBT2017] Gaia 2
VVV CL131
VVV CL143
VVV CL160
IC 1257
NGC 6749
Gran 3
Palomar 10
Pyxis Cluster
Patchick 122
ESO 224-8
Palomar 15
Palomar 1
PWM 2
Terzan 5
Palomar 2
Tonantzintla 2
cl Djorgovski 1
Mercer 5
Patchick 126
Terzan 6
2MASS-GC03
Palomar 13
Laevens 1
Riddle 15
C 1250-669
Camargo 1102
Camargo 1103
Camargo 1104
Camargo 1105
Camargo 1106
VVVX-GC-140900-653712
Gran 1
Gran 2
Gran 5
Kim 1
Kim 2
Kim 3
Laevens 3
GLIMPSE C02