M 87 
NGC 6868 
NGC 253 
M 105 
NGC 7479 
NGC 1365 
NGC 1097 
NGC 4651 
M 77 
Circinus Galaxy 
NGC 3621 
NGC 1566 
NGC 1808 
NGC 1433 
NGC 1672 
NGC 6300 
NGC 5377 
IC 1459 
NGC 1792 
IC 5267 
NGC 45 
NGC 6221 
NGC 2442 
NGC 6870 
NGC 2217 
NGC 2613 
NGC 5084 
NGC 5101 
NGC 1350 
NGC 613 
NGC 908 
NGC 4437 
ESO 69-9 
NGC 7213 
NGC 5643 
NGC 1300 
NGC 157 
NGC 5054 
LEDA 2816946 
NGC 3655 
NGC 2776 
IC 4296 
NGC 2344 
LEDA 98929 
NGC 1326 
NGC 3887 
NGC 4936 
NGC 3366 
NGC 6753 
NGC 7552 
NGC 5078 
NGC 5792 
NGC 5850 
NGC 7205 
NGC 1187 
NGC 1964 
NGC 3223 
UGC 2936 
NGC 1357 
NGC 1637 
NGC 7418 
NGC 6814 
NGC 986 
NGC 5266 
NGC 4691 
NGC 4874 
NGC 289 
NGC 7314 
NGC 1050 
NGC 1253 
NGC 1784 
ESO 556-15 
NGC 7496 
NGC 625 
IC 5325 
NGC 1079 
NGC 151 
IC 4351 
NGC 5861 
NGC 7083 
NGC 5016 
NGC 2935 
NGC 3672 
ESO 380-6 
NGC 5161 
NGC 5806 
NGC 1493 
ESO 137-34 
NGC 988 
NGC 5375 
NGC 150 
NGC 3001 
NGC 3095 
NGC 3313 
NGC 4781 
NGC 5556 
IC 4402 
NGC 6782 
UGC 12646 
NGC 1832 
IC 5271 
NGC 7689 
NGC 4602 
NGC 7590 
UGC 6771 
NGC 5357 
NGC 4357 
NGC 237 
UGC 9088 
ESO 358-63 
NGC 2708 
NGC 2815 
NGC 3137 
NGC 4219 
ESO 507-25 
NGC 3256 
NGC 685 
NGC 3149 
NGC 5064 
IC 4682 
ESO 380-1 
NGC 5124 
NGC 5488 
NGC 1518 
NGC 7456 
NGC 2781 
NGC 3056 
NGC 4304 
NGC 4731 
NGC 5968 
NGC 6000 
NGC 6920 
NGC 5833 
IC 4845 
IC 4785 
ESO 142-19 
NGC 5311 
UGC 7416 
NGC 4911 
UGC 5 
NGC 4566 
NGC 681 
NGC 428 
NGC 3081 
NGC 3783 
NGC 4045 
NGC 4951 
NGC 6923 
IC 1970 
ESO 220-30 
NGC 1337 
IC 438 
NGC 615 
NGC 2763 
NGC 2992 
IC 2560 
NGC 3393 
IC 2764 
NGC 4947 
NGC 5135 
ESO 384-53 
NGC 5757 
ESO 121-6 
NGC 1249 
ESO 5-4 
ESO 21-4 
NGC 6328 
NGC 6699 
IC 4444 
UGC 4277 
NGC 2642 
IC 2522 
NGC 3573 
NGC 2369 
ESO 15-5 
IC 5222 
NGC 782 
ESO 507-45 
ESO 445-50 
ESO 445-49 
UGC 1395 
NGC 2206 
NGC 2665 
NGC 175 
NGC 958 
NGC 3318 
ESO 320-26 
NGC 4507 
NGC 5015 
IC 5176 
ESO 221-6 
NGC 6770 
NGC 5622 
NGC 2861 
ESO 445-81 
NGC 1241 
UGCA 104 
IC 1788 
NGC 7171 
NGC 7416 
NGC 1015 
NGC 3110 
ESO 265-3 
NGC 3568 
NGC 4897 
NGC 4899 
ESO 336-6 
NGC 6926 
NGC 238 
NGC 360 
NGC 4785 
NGC 6844 
NGC 4700 
NGC 4869 
IC 4374 
NGC 4908 
ESO 443-41 
NGC 5249 
NGC 1752 
MCG-01-57-004 
IC 2534 
NGC 3693 
IC 4197 
ESO 446-17 
ESO 216-24 
IC 4200 
IC 5084 
UGC 10104 
IC 4180 
ESO 384-19 
ESO 444-18 
NGC 2721 
ESO 355-30 
UGCA 167 
IC 2548 
ESO 376-4 
IC 3639 
ESO 445-1 
NGC 5291 
ESO 511-30 
ESO 356-22 
ESO 122-1 
ESO 221-10 
IC 4852 
[OKM2018] SWIFT J1737.7-5956B 
IC 4933 
NGC 5051 
NGC 662 
NAME Wild's Triplet 
NGC 4968 
IC 1898 
IC 382 
NGC 1843 
ESO 423-2 
NGC 424 
NGC 907 
NGC 3456 
NGC 3732 
NGC 4385 
NGC 5088 
NGC 5105 
IC 5141 
NGC 5219 
NGC 7162 
[KEC2012] 216.968489+35.583390 
ESO 509-108 
MCG+08-18-060 
ESO 510-53 
IC 4045 
ESO 481-18 
IC 1952 
IC 1562 
NGC 7393 
NGC 600 
NGC 2884 
NGC 2989 
ESO 566-24 
ESO 499-9 
IC 2580 
ESO 437-30 
ESO 569-12 
ESO 437-67 
NGC 4628 
NGC 4672 
NGC 5327 
ESO 397-4 
NGC 6941 
NGC 1705 
NGC 3482 
ESO 267-30 
ESO 108-21 
NGC 5234 
IC 4696 
ESO 140-12 
NGC 6899 
ESO 231-1 
ESO 342-35 
ESO 444-86 
ESO 384-23 
UGC 9233 
UGC 6361 
MCG-02-10-009 
ESO 361-15 
MCG-02-13-021 
IC 2104 
NGC 2328 
ESO 563-14 
NGC 2722 
IC 1657 
IC 1734 
ESO 564-27 
NGC 2993 
NGC 3208 
ESO 436-29 
NGC 3361 
NGC 3508 
NGC 4583 
NGC 4928 
IC 4468 
IC 4597 
IC 2202 
NGC 7650 
NGC 7408 
ESO 269-61 
IC 4729 
IC 4692 
ESO 328-41 
ESO 435-16 
IC 4042 
NGC 7399 
ESO 510-46 
ESO 420-3 
MCG-02-13-038 
ESO 355-26 
NGC 418 
NGC 723 
NGC 1103 
UGCA 17 
NGC 2947 
NGC 3173 
NGC 3240 
ESO 317-20 
ESO 501-88 
ESO 576-11 
ESO 445-58 
NGC 6806 
NGC 1311 
NGC 2381 
ESO 35-18 
ESO 36-19 
ESO 19-3 
ESO 220-8 
IC 4870 
IC 4745 
LEDA 165715 
LEDA 60692 
IC 4664 
ESO 140-43 
IC 4523 
ESO 510-59 
UGC 4640 
NGC 7115 
NGC 4871 
ESO 383-48 
NGC 5646 
ESO 383-30 
LEDA 46461 
NGC 7432 
ESO 445-73 
LEDA 170270 
UGC 10437 
NGC 1222 
NGC 1594 
NGC 2617 
MCG-02-23-001 
ESO 563-36 
NGC 853 
NGC 259 
MCG-01-05-047 
NGC 2980 
NGC 3045 
ESO 501-102 
MCG-02-29-027 
NGC 3719 
ESO 320-35 
IC 784 
NGC 4942 
UGCA 311 
ESO 444-19 
ESO 383-25 
NGC 5464 
ESO 399-14 
NGC 6912 
ESO 263-35 
ESO 68-12 
ESO 221-8 
NGC 1636 
ESO 445-51 
LEDA 3702335 
QSO J0217+0144 
NGC 1821 
MCG-01-23-002 
ESO 292-14 
ESO 541-1 
NGC 7450 
NGC 3333 
NGC 3903 
NGC 4718 
ESO 383-60 
ESO 446-39 
ESO 159-2 
ESO 263-23 
ESO 87-32 
ESO 153-20 
ESO 26-1 
IC 5227 
ESO 101-22 
ESO 527-19 
ESO 383-27 
ESO 510-63 
LEDA 86310 
NGC 6314 
NGC 4876 
ESO 384-14 
ESO 510-60 
NVSS J102729+011444 
LEDA 683463 
2MFGC 8968 
IC 4232 
ESO 444-38 
Ton 599 
ESO 555-2 
ESO 488-51 
IC 1862 
NGC 244 
IC 1529 
MCG-02-25-017 
IC 2523 
UGCA 228 
ESO 267-13 
NGC 4484 
NGC 4903 
MCG-05-31-022 
NGC 5618 
ESO 447-23 
IC 1060 
ESO 89-12 
ESO 90-9 
ESO 270-15 
ESO 101-11 
IC 4359 
IC 4769 
ESO 271-27 
IC 4810 
ESO 327-7 
NGC 341 
ESO 445-13 
NGC 4872 
ESO 446-1 
NGC 5253 
ESO 445-54 
LEDA 2793720 
NGC 1163 
ESO 481-7 
MCG-01-10-023 
ESO 482-46 
UGC 3134 
ESO 491-9 
ESO 472-4 
ESO 540-1 
ESO 540-3 
MCG-02-56-026 
MCG-01-58-009 
MCG-01-04-040 
NGC 7694 
MCG-01-59-027 
ESO 498-3 
ESO 444-12 
IC 4393 
NGC 5768 
ESO 337-6 
ESO 281-38 
ESO 592-10 
ESO 58-13 
ESO 39-4 
ESO 509-51 
ESO 445-79 
IC 3960 
2MASX J16363129+4202429 
NGC 5260 
ESO 325-16 
MCG-01-07-007 
ESO 443-56 
MCG-04-31-024 
ESO 510-23 
LEDA 162182 
[KEC2012] 219.389032+35.486150 
ESO 381-45 
Mrk 1044 
ESO 507-70 
ESO 443-37 
NGC 5061 
ESO 345-2 
ESO 353-9 
NGC 858 
ESO 373-26 
ESO 567-26 
ESO 317-36 
ESO 320-24 
MCG-01-33-054 
ESO 322-76 
NGC 4980 
ESO 509-38 
ESO 509-103 
ESO 123-9 
ESO 153-17 
ESO 268-33 
ESO 327-39 
ESO 286-44 
ESO 572-18 
ESO 443-52 
ESO 443-77 
MCG-06-31-026 
MCG+10-20-012 
LEDA 48911 
ESO 446-19 
ESO 443-55 
ESO 508-10 
ESO 507-42 
LEDA 89777 
IC 4253 
ESO 305-14 
ESO 554-24 
UGC 3964 
ESO 562-13 
ESO 415-22 
MCG-03-03-010 
MCG-02-08-033 
NGC 624 
Mrk 996 
MCG-01-05-017 
NGC 3128 
NGC 4990 
2MASX J13261061-2649366 
MCG-02-35-013 
IC 4388 
ESO 461-42 
ESO 451-1 
ESO 596-10 
ESO 119-8 
ESO 216-8 
IC 4862 
ESO 142-13 
ESO 184-74 
ESO 235-4 
ESO 283-4 
MCG-01-33-080 
LEDA 46553 
LEDA 88943 
IC 4276 
ESO 446-23 
MCG-02-02-020 
ESO 383-55 
6dFGS gJ055710.4-675027 
ESO 509-82 
ESO 510-34 
MCG-06-31-029 
ESO 382-17 
MCG+06-32-047 
IC 4021 
ESO 418-9 
NGC 1585 
ESO 554-19 
ESO 424-12 
MCG-01-23-013 
NGC 597 
NGC 7298 
MCG-01-60-026 
MCG-01-02-011 
NGC 3431 
ESO 444-71 
ESO 509-97 
ESO 384-3 
ESO 446-26 
ESO 595-10 
ESO 124-19 
ESO 264-48 
ESO 264-41 
ESO 27-21 
ESO 107-15 
Z 19-38 
ESO 443-13 
ESO 443-10 
ESO 444-75 
ESO 325-8 
2MASX J07400140+3211401 
NVSS J102724+011430 
LEDA 3807068 
ESO 383-69 
ESO 444-15 
ESO 384-57 
LEDA 3800191 
ESO 511-8 
ESO 509-59 
IC 4318 
QSO J0831+5245 
ESO 483-6 
IC 416 
LEDA 90033 
UGC 4370 
ESO 562-14 
MCG-02-01-028 
UGC 1382 
MCG-01-23-016 
MCG-02-26-041 
NGC 4202 
ESO 322-69 
ESO 316-21 
ESO 245-10 
ESO 58-25 
ESO 25-2 
ESO 139-53 
ESO 234-24 
ESO 230-6 
MCG-02-53-009 
IC 1767 
ESO 269-12 
ESO 382-27 
ESO 508-67 
2MASX J13330839-2332386 
LEDA 3815845 
IRAS F14132-2739 
ESO 384-20 
ESO 508-3 
IC 4040 
Mrk 1069 
MCG-02-09-019 
NGC 1363 
ESO 406-27 
IC 1412 
NGC 539 
NGC 829 
MCG-01-07-022 
MCG-01-54-002 
UGCA 217 
ESO 443-29 
ESO 323-85 
LEDA 1009725 
LEDA 139194 
ESO 44-13 
IC 4890 
ESO 186-55 
MCG-01-55-011 
ESO 509-83 
ESO 444-70 
LEDA 88946 
MCG+06-32-061 
ESO 444-17 
ESO 325-5 
ESO 507-16 
LEDA 3099221 
LEDA 733714 
LEDA 3817123 
IC 3949 
ESO 510-25 
ESO 419-13 
MCG-03-14-011 
MCG-03-17-004 
ESO 344-21 
ESO 472-6 
ESO 603-12 
NVSS J215807+010042 
MCG-01-26-029 
ESO 317-7 
IC 632 
IC 673 
LEDA 702439 
ESO 510-17 
LEDA 737187 
ESO 446-21 
ESO 338-17 
ESO 243-29 
ESO 31-20 
ESO 108-17 
ESO 381-13 
LEDA 668611 
ESO 509-29 
IC 4260 
LEDA 158073 
2MASX J12571076+2724177 
LEDA 47335 
LEDA 768471 
ESO 384-46 
ESO 382-19 
LEDA 170442 
LEDA 88925 
ESO 445-63 
ESO 510-55 
MCG+06-32-072 
FBS 0150+396 
LEDA 47327 
IC 4309 
UGC 9367 
[KEC2012] 217.514475+33.928014 
ESO 185-13 
MCG-01-10-038 
ESO 554-27 
NGC 2212 
ESO 546-3 
NGC 1154 
LEDA 3081781 
Mrk 752 
LEDA 129313 
ESO 37-5 
ESO 38-12 
ESO 187-58 
LEDA 944989 
LEDA 88699 
ESO 511-6 
LEDA 86312 
ESO 445-10 
ESO 382-44 
ESO 383-18 
LEDA 3817976 
ESO 511-11 
LEDA 88978 
2MASS J14315524+3328275 
LEDA 617494 
IC 4292 
2MASS J06053238-6704055 
LEDA 3810640 
UGC 9315 
[KEC2012] 217.666505+35.451101 
MCG-01-14-012 
ESO 242-17 
MCG-01-24-004 
LEDA 36031 
ESO 380-29 
MCG-02-34-059 
ESO 444-47 
ESO 511-20 
ESO 513-22 
MCG-02-38-027 
ESO 71-4 
ESO 221-18 
ESO 507-56 
LEDA 3099236 
LEDA 3817697 
LEDA 158361 
2MASS J14243750+3450590 
LEDA 158067 
2MASX J13313982-3314341 
LEDA 3082166 
LEDA 733037 
ESO 384-4 
LEDA 3082160 
LEDA 754182 
2MASX J13321516-3322400 
LEDA 3819594 
LEDA 3082214 
ESO 446-8 
LEDA 677111 
ESO 384-30 
2MASS J14382659+3329453 
MCG-02-13-019 
ESO 307-17 
UGCA 23 
MCG-03-25-003 
Mrk 1270 
ESO 503-5 
ESO 266-18 
ESO 446-15 
ESO 338-12 
ESO 462-10 
MCG-02-39-008 
NGC 6240S 
LEDA 3816991 
LEDA 643833 
LEDA 83943 
ATO J016.4116-14.2704 
PKS 1306-241 
[KEC2012] 216.777641+33.189943 
ESO 509-64 
2MASX J14305363+3458364 
2MASX J13322716-3730489 
2MASS J14280626+3455213 
LEDA 46422 
6dFGS gJ060106.8-674229 
LEDA 3816084 
Mrk 930 
2MASX J12464396-2601526 
LEDA 88952 
LEDA 615774 
MCG-06-29-012 
LEDA 681459 
UGC 4449 
ESO 443-51 
LEDA 170249 
ESO 508-54 
ESO 510-64 
LEDA 3082383 
LEDA 148094 
LEDA 134954 
NGC 1074 
UGC 4996 
ESO 437-49 
ESO 378-11 
MCG-02-33-097 
2MASX J13263064-2751118 
ESO 579-10 
ESO 512-25 
MCG-02-50-007 
ESO 264-11 
ESO 215-5 
IC 5140 
IC 4934 
MCG-01-37-004 
LEDA 613511 
MCG+01-26-011 
LEDA 184497 
LEDA 3811204 
ESO 443-65 
LEDA 621258 
LEDA 97731 
LEDA 88829 
FRL 1155 
LEDA 3816865 
PKS J1259-2539 
LEDA 89511 
2MASS J14261139+3453018 
[KEC2012] 216.832825+35.560487 
LEDA 88969 
ESO 442-20 
NVSS J143143+353554 
2MASX J11204901+0027335 
ESO 323-87 
LEDA 47228 
ESO 445-83 
LEDA 3099310 
RX J130739.6-425939 
LEDA 88931 
ESO 404-45 
MCG-01-03-012 
ESO 567-13 
ESO 322-18 
2MASX J13404914-3555103 
ESO 215-14 
ESO 101-1 
2MASS J14364270+3418375 
LEDA 179392 
2MASX J13541542-3746333 
LEDA 645270 
LEDA 47320 
LEDA 88916 
2MASS J14351655+3543385 
ESO 444-10 
LEDA 663848 
LEDA 184227 
2MASS J14384307+3549201 
2MASX J23212094-0939099 
ESO 507-61 
LEDA 753252 
LEDA 3082250 
ESO 509-39 
LEDA 700536 
LEDA 790793 
LEDA 646757 
MCG-01-12-003 
ESO 297-12 
MCG-02-06-047 
MCG-01-03-005 
UGC 10005 
LEDA 170269 
LEDA 83641 
2MASS J14323515+3421540 
PG 0953+414 
ESO 507-68 
LEDA 3082180 
LEDA 46913 
2MASX J14345010+3549121 
LEDA 730362 
LEDA 3082374 
LEDA 2816885 
LEDA 184530 
LEDA 766895 
2MASS J14263390+3548546 
LEDA 728767 
LEDA 697200 
ESO 511-3 
LEDA 3814039 
2MASS J14265013+3335067 
LEDA 88835 
LEDA 683491 
LEDA 3820097 
LEDA 793086 
LEDA 3082333 
LEDA 140166 
LEDA 650477 
2MASX J14271215+3536302 
ESO 547-7 
ESO 357-5 
ESO 404-33 
ESO 467-19 
ESO 573-2 
IC 850 
LEDA 2793711 
ESO 383-92 
LEDA 718312 
ESO 384-63 
ESO 581-4 
LEDA 14350 
ESO 124-16 
ESO 60-15 
ESO 4-23 
ESO 186-60 
ESO 340-8 
LEDA 592544 
LEDA 1073592 
LEDA 282241 
LEDA 98388 
LEDA 745462 
LEDA 183915 
LEDA 88934 
ESO 507-54 
LEDA 88896 
LEDA 767273 
LEDA 2816904 
2MASS J14345466+3349199 
LEDA 158128 
LEDA 47271 
2MASX J13235995-3128213 
LEDA 3804128 
Mrk 60 
LEDA 88667 
LEDA 712617 
LEDA 2793535 
2MASX J13343076-2334204 
LEDA 715600 
LEDA 787280 
2MASS J14310020+3544276 
LEDA 158364 
ESO 443-81 
LEDA 2793489 
LEDA 89791 
ESO 446-18 
6dFGS gJ011018.0-455559 
2MASX J12570425-3022305 
LEDA 159666 
LEDA 828986 
6dFGS gJ134643.5-253737 
6dFGS gJ134816.4-314647 
LEDA 715244 
2MASX J14273216+3430390 
2MASS J14322477+3342374 
ESO 358-15 
LEDA 1070307 
Mrk 1307 
LEDA 721012 
ESO 510-6 
LEDA 91667 
LEDA 183750 
LEDA 159564 
LEDA 663438 
LEDA 84020 
6dFGS gJ134522.2-285626 
6dFGS gJ140436.7-272239 
LEDA 723990 
LEDA 623820 
LEDA 92434 
SDSS J143454.21+334934.5 
LEDA 158093 
LEDA 756489 
LEDA 615958 
ESO 443-5 
2MASX J13000305-2542065 
2MASX J13110343-3400276 
6dFGS gJ141124.7-310435 
2MASX J13340150-2906484 
LEDA 685382 
ESO 442-19 
LEDA 716253 
LEDA 2816892 
LEDA 659674 
LEDA 184326 
LEDA 683281 