3C 66A 
QSO B2344+514 
6C 024820+430300 
ICRF J031357.6+411523 
QSO J2102+6015 
QSO B1959+650 
6C 051007+555837 
3C 371 
2MASX J05581173+5328180 
6C 172704+501607 
NGC 6338 
8C 0716+714 
QSO J1719+4804 
ICRF J065422.0+504223 
7C 073311.80+594748.00 
NGC 2332 
7C 164616.60+495503.00 
6C 102716+745713 
4C 47.23 
2MASX J12251408+7214479 
6C 113337+702604 
7C 080602.89+522749.00 
QSO J0831+5245 
2MASXI J0810546+491103 
6C 081649+490320 
2MASX J09483203+5535348 
6C 090831+533244 
7C 105047.29+494553.00 
6C 101157+494057 
QSO B1426+428 
2MASXI J1413437+433945 
2MASX J03063845-0030360 
6C 032130+340016 
B3 0639+423 
7C 065109.30+425147.00 
4C 42.22 
ICRF J065510.0+410010 
7C 080625.30+350445.00 
LEDA 4618965 
2MASX J08503620+3455231 
QSO B2155-304 
ESO 349-10 
LEDA 134538 
ICRF J233355.2-234340 
RX J0238.8-1258 
2MASX J21470043-1019118 
[VV2006] J023224.9-071910 
ICRF J214533.3-043439 
Z 382-31 
QSO B0111+021 
ICRF J015239.6+014717 
4C 04.77 
LEDA 1385575 
ICRF J021717.1+083703 
LEDA 1413300 
2MASX J02451349+1047230 
QSO B2201+1711 
QSO B2209+184 
QSO B0229+200 
2MASX J23183687+3048372 
9C J0028+3103 
4C 31.63 
2MASS J23224401+3436139 
ICRF J220421.1+363237 
LEDA 2126234 
6C 010709+413321 
ICRF J020405.1+400503 
7C 022224.00+365659.00 
2MASX J09080217-0959378 
2MASS J09364512+0509271 
ICRF J120416.6-071009 
6C 121520+302351 
7C 1219+2830 
LEDA 2068085 
7C 122744.79+253415.00 
3C 273 
QSO J1301-3226 
MCG-03-34-049 
7C 1338+4015 
2MASX J14043683+2701409 
IC 4374 
7C 1415+2556 
QSO B1422+2309 
7C 1424+2401 
QSO B1514-24 
QSO B1725-142 
LEDA 201743 
QSO B1553+113 
QSO B1722+119 
QSO B1741+196 
ICRF J205135.5+174336 
7C 164526.30+291456.00 
7C 173649.10+322532.00 
7C 151436.89+292850.00 
QSO B2023+336 
6C 171546+422932 
ESO 254-17 
ESO 248-6 
QSO B0208-512 
ESO 115-15 
2FGL J0209.5-5229 
AT20G J010333-643907 
QSO J2339-5523 
ICRF J125457.5-442456 
ESO 45-11 
NGC 6328 
9Y-MST J2135-5006 
QSO B2005-489 
WISEA J144357.20-390840.0 
2MASX J23224039-4220423 
2MASS J23220227+0809130 
2MASS J03252353-5635446 
2MASS J05544724+6620438 
2MASS J06235520+0018433 
2MASS J06441086+3546446 
2MASX J11361319-3745223 
2MASX J03525755-6831167 
7C 092904.50+364330.00 
2MASX J20035444-0856428 
2MASX J22232133-0856294 
2MASX J08310034+5400235 
QSO J0623-6436 
2FGL J1303.5-4622 
LEDA 3087064 
ICRF J061733.4-171525 
4FGL J1925.1-1019 
CRATES J202336-114000 
SDSS J083724.71+145819.8 
GLEAM J192744-050953 
ICRF J202226.4-451329 
SDSS J092131.63+295352.6 
Mrk 421 
7C 165211.80+395026.00 